{
  "notes": [
    {
      "title": "Yoshi's birthday bash",
      "details": "Lorem Ipsum is simply dummy text of the printing and typesetting industry. Lorem Ipsum has been the industry's standard dummy text ever since the 1500s, when an unknown printer took a galley of type and scrambled it to make a type specimen book.",
      "category": "reminders",
      "id": 1
    },
    {
      "title": "Complete my ninja training",
      "details": "Lorem Ipsum is simply dummy text of the printing and typesetting industry. Lorem Ipsum has been the industry's standard dummy text ever since the 1500s, when an unknown printer took.",
      "category": "work",
      "id": 2
    },
    {
      "title": "Refactor NumResourcedPerDept",
      "details": "Please refactor the component or you'll be fucked.",
      "category": "work",
      "id": 4
    },
    {
      "title": "Create the products page",
      "details": "Please create the products page.",
      "category": "todos",
      "id": 5
    },
    {
      "title": "Go for SkyDive",
      "details": "Take money from saving and go to skydive.",
      "category": "money",
      "id": 6
    }
  ]
}